…
Aby lepiej zobaczyć co właściwie się tutaj stało - posortujmy wynikową
tabelę wg ID matki:

``` r
dane3 <- group_by(dane2, dam)
dane3 <- mutate(dane3, mean_tars = mean(tarsus))
arrange(dane3, dam)
```

    # A tibble: 828 × 7
    # Groups:   dam [106]
       dam   fosternest tarsus weight bill_length bill_depth mean_tars
       <fct> <fct>       <dbl>  <dbl>       <dbl>      <dbl>     <dbl>
     1 Fem2  H702         14.5   10          11.6      0.645      14.4
     2 Fem2  H702         13.8    9.5        11.1      0.619      14.4
     3 Fem2  A18B02       14.4    9.5        11.5      0.634      14.4
     4 Fem2  A18B02       14.7    9.5        11.8      0.658      14.4
     5 Fem2  A18B02       14.8    9.8        11.8      0.607      14.4
     6 Fem20 H1102        13.9    9.4        11.1      0.567      14.5
     7 Fem20 H1102        14.5    9.9        11.6      0.665      14.5
     8 Fem20 H1102        14.8    9.9        11.9      0.643      14.5
     9 Fem20 H1102        14.1    9.4        11.2      0.591      14.5
    10 Fem20 H1102        14.6    9.8        11.7      0.643      14.5
    # … with 818 more rows

Czy zauważyłeś zmianę tabeli danych na nowy typ obiektu zwany `tibble`?

Wykonanie powyższej serii operacji bardzo ułatwia użycie tzw. operatora
**pipe**, pozwalającego łączyć dłuższe ciągi operacji w jeden spójny
“potok”:

``` r
group_by(dane2, dam) %>%
  mutate(mean_tars = mean(tarsus)) %>%
  arrange(dam)
```

    # A tibble: 828 × 7
    # Groups:   dam [106]
       dam   fosternest tarsus weight bill_length bill_depth mean_tars
       <fct> <fct>       <dbl>  <dbl>       <dbl>      <dbl>     <dbl>
     1 Fem2  H702         14.5   10          11.6      0.645      14.4
     2 Fem2  H702         13.8    9.5        11.1      0.619      14.4
     3 Fem2  A18B02       14.4    9.5        11.5      0.634      14.4
     4 Fem2  A18B02       14.7    9.5        11.8      0.658      14.4
     5 Fem2  A18B02       14.8    9.8        11.8      0.607      14.4
     6 Fem20 H1102        13.9    9.4        11.1      0.567      14.5
     7 Fem20 H1102        14.5    9.9        11.6      0.665      14.5
     8 Fem20 H1102        14.8    9.9        11.9      0.643      14.5
     9 Fem20 H1102        14.1    9.4        11.2      0.591      14.5
    10 Fem20 H1102        14.6    9.8        11.7      0.643      14.5
    # … with 818 more rows
…
Aby wyświetlić więcej niż 10 wierszy tabeli dodaj do potoku funkcji
`print()` z opcją `n = 30` (jeśli chcesz wyświetlić 30 wierszy).
Dlaczego w trakcie obliczeń musimy zastosować `ungroup()`? Co się
stanie, jeśli tego nie zrobimy?

**Spodziewany wynik**

    # A tibble: 828 × 6
       dam     fosternest tarsus weight mean_weight mean_ratio
       <fct>   <fct>       <dbl>  <dbl>       <dbl>      <dbl>
     1 R187537 A1002        14.7   10          9.64      0.985
     2 R187537 A1002        14.8    9.8        9.64      0.985
     3 R187537 A1002        14.9    9.7        9.64      0.985
     4 R187537 A1002        14.5    9.6        9.64      0.985
     5 R187563 A1002        13.2    9.3        9.64      0.985
     6 R187563 A1002        13.6    9.2        9.64      0.985
     7 R187563 A1002        14.0    9.2        9.64      0.985
     8 R187563 A1002        14.7   10.1        9.64      0.985
     9 R187563 A1002        14.4    9.9        9.64      0.985
    10 R187539 A102         14.2    9.8        9.67      0.987
    11 R187539 A102         14.1    9.5        9.67      0.987
    12 R187539 A102         15.1   10.1        9.67      0.987
    13 R187539 A102         13.1    8.8        9.67      0.987
    14 R187566 A102         14.6    9.4        9.67      0.987
    15 R187566 A102         14.7    9.9        9.67      0.987
    16 R187566 A102         14.4    9.6        9.67      0.987
    17 R187566 A102         14.5    9.8        9.67      0.987
    18 R187566 A102         15.1   10.1        9.67      0.987
    19 R186910 A1202        14.5   10.2        9.7       0.991
    20 R186910 A1202        13.5    9.1        9.7       0.991
    21 R186910 A1202        14.8   10.4        9.7       0.991
    22 R186910 A1202        14.1    9.2        9.7       0.991
    23 R186910 A1202        15.1   10.3        9.7       0.991
    24 R186910 A1202        14.1    9.5        9.7       0.991
    25 R186910 A1202        13.9    9.2        9.7       0.991
    26 R187518 A1302        14.7    9.7        9.84      1.00 
    27 R187518 A1302        14.8   10.1        9.84      1.00 
    28 R187518 A1302        14.1    9.4        9.84      1.00 
    29 R187518 A1302        14.6    9.9        9.84      1.00 
    30 R187518 A1302        14.1    9.7        9.84      1.00 
    # … with 798 more rows
…
    `summarise()` has grouped output by 'fosternest'. You can override using the `.groups` argument.

Taki zestaw danych w formie długiej możemy przerobić na szeroki tworząc
osobne kolumny dla samców i samic w danym gnieździe.

``` r
dane_l %>%
  pivot_wider(names_from = sex, values_from = mean_w)
```

    # A tibble: 201 × 4
    # Groups:   fosternest [104]
       fosternest   var_w   Fem  Male
       <fct>        <dbl> <dbl> <dbl>
     1 A1002      0.139    9.57 NA   
     2 A1002      0.07    NA     9.8 
     3 A102       0.249    9.48 NA   
     4 A102       0.0770  NA     9.82
     5 A1202      0.0433   9.27 NA   
     6 A1202      0.00500 NA    10.4 
     7 A1302      0        9.7  NA   
     8 A1302      0.0817  NA     9.88
     9 A1602      0.0960   9.5  NA   
    10 A1602      0.180   NA     9.7 
    # … with 191 more rows

Powyższa komenda nie zadziałała tak, jak chcemy, bo pozostawiliśmy w
danych kolumnę z wariancją, zawierającą unikatowe wpisy “dublujące”
wiersze z każdym `fosternest`. Musimy albo się tej kolumny pozbyć, albo
też uwzględnić ją w `pivot_wider`:

``` r
dane_l %>%
  select(-var_w) %>%
  pivot_wider(names_from = sex, values_from = mean_w)
```

    # A tibble: 104 × 3
    # Groups:   fosternest [104]
       fosternest   Fem  Male
       <fct>      <dbl> <dbl>
     1 A1002       9.57  9.8 
     2 A102        9.48  9.82
     3 A1202       9.27 10.4 
     4 A1302       9.7   9.88
     5 A1602       9.5   9.7 
     6 A1802       9.6   9.95
     7 A18B02     10     9.72
     8 A2202       9.48 10   
     9 A22B02      9.33  9.48
    10 A2302       9.57  9.7 
    # … with 94 more rows

``` r
dane_l %>%
  pivot_wider(names_from = sex, values_from = c(mean_w, var_w))
```

    # A tibble: 104 × 5
    # Groups:   fosternest [104]
       fosternest mean_w_Fem mean_w_Male var_w_Fem var_w_Male
       <fct>           <dbl>       <dbl>     <dbl>      <dbl>
     1 A1002            9.57        9.8     0.139     0.07   
     2 A102             9.48        9.82    0.249     0.0770 
     3 A1202            9.27       10.4     0.0433    0.00500
     4 A1302            9.7         9.88    0         0.0817 
     5 A1602            9.5         9.7     0.0960    0.180  
     6 A1802            9.6         9.95    0.260     0.605  
     7 A18B02          10           9.72    0.0200    0.0870 
     8 A2202            9.48       10       0.192     0.167  
     9 A22B02           9.33        9.48    0.0233    0.0692 
    10 A2302            9.57        9.7     0.171     0.07   
    # … with 94 more rows
Zapiszmy dane w nowym obiekcie `dane_w`.

``` r
dane_w <- dane_l %>%
  select(-var_w) %>%
  pivot_wider(names_from = sex, values_from = mean_w)
```

**Zadanie** Spróbuj odwrócić działanie zamieniając “szeroki” styl danych
na “długi” - korzystając z funkcji `pivot_longer()`. Nazwij zmienną
“płeć” `animal_sex`, a zmienną z ciężarem ciała - ’body_weight\`.

**Spodziewany wynik**

    # A tibble: 208 × 3
    # Groups:   fosternest [104]
       fosternest animal_sex body_weight
       <fct>      <chr>            <dbl>
     1 A1002      Fem               9.57
     2 A1002      Male              9.8 
     3 A102       Fem               9.48
     4 A102       Male              9.82
     5 A1202      Fem               9.27
     6 A1202      Male             10.4 
     7 A1302      Fem               9.7 
     8 A1302      Male              9.88
     9 A1602      Fem               9.5 
    10 A1602      Male              9.7 
    # … with 198 more rows
…
